{
  "nodes" : [ {
    "external_urls" : {
      "spotify" : "https://open.spotify.com/artist/0C0XlULifJtAgn6ZNCW2eu"
    },
    "followers" : {
      "href" : null,
      "total" : 3022176
    },
    "genres" : [ "alternative rock", "indie christmas", "indie rock", "modern rock", "permanent wave", "pop christmas", "rock", "vegas indie" ],
    "href" : "https://api.spotify.com/v1/artists/0C0XlULifJtAgn6ZNCW2eu",
    "id" : "0C0XlULifJtAgn6ZNCW2eu",
    "images" : [ {
      "height" : 500,
      "url" : "https://i.scdn.co/image/a841f0ee4f2d88c42f55f76c2cc6b588841f5d2f",
      "width" : 500
    }, {
      "height" : 200,
      "url" : "https://i.scdn.co/image/c47117e331659695a4674b48d23003708be3fb77",
      "width" : 200
    }, {
      "height" : 64,
      "url" : "https://i.scdn.co/image/35eb446a46cf7ba603b540b88a5cb4ec219a9f02",
      "width" : 64
    } ],
    "name" : "The Killers",
    "popularity" : 82,
    "type" : "artist",
    "uri" : "spotify:artist:0C0XlULifJtAgn6ZNCW2eu"
  }, {
    "external_urls" : {
      "spotify" : "https://open.spotify.com/artist/53XhwfbYqKCa1cC15pYq2q"
    },
    "followers" : {
      "href" : null,
      "total" : 8047693
    },
    "genres" : [ "modern rock", "vegas indie" ],
    "href" : "https://api.spotify.com/v1/artists/53XhwfbYqKCa1cC15pYq2q",
    "id" : "53XhwfbYqKCa1cC15pYq2q",
    "images" : [ {
      "height" : 640,
      "url" : "https://i.scdn.co/image/1233a174b66518fd7c7ff9ce96202054ca062f09",
      "width" : 640
    }, {
      "height" : 320,
      "url" : "https://i.scdn.co/image/8dfb733a23f3aa7c95be20b409feec30bec61f17",
      "width" : 320
    }, {
      "height" : 160,
      "url" : "https://i.scdn.co/image/3d16562a5fb4a16326c69e8690c88c050b6e1035",
      "width" : 160
    } ],
    "name" : "Imagine Dragons",
    "popularity" : 91,
    "type" : "artist",
    "uri" : "spotify:artist:53XhwfbYqKCa1cC15pYq2q"
  }, {
    "external_urls" : {
      "spotify" : "https://open.spotify.com/artist/00FQb4jTyendYWaN8pK0wa"
    },
    "followers" : {
      "href" : null,
      "total" : 5828162
    },
    "genres" : [ "dance pop", "pop" ],
    "href" : "https://api.spotify.com/v1/artists/00FQb4jTyendYWaN8pK0wa",
    "id" : "00FQb4jTyendYWaN8pK0wa",
    "images" : [ {
      "height" : 640,
      "url" : "https://i.scdn.co/image/56a3782b07eab32b5340f164c566349450ee84cd",
      "width" : 640
    }, {
      "height" : 320,
      "url" : "https://i.scdn.co/image/7891384e95fa3c1a7020645ae790c7924f7ae1dc",
      "width" : 320
    }, {
      "height" : 160,
      "url" : "https://i.scdn.co/image/79e5bc2897ca24249707294d1e9324441bda97af",
      "width" : 160
    } ],
    "name" : "Lana Del Rey",
    "popularity" : 85,
    "type" : "artist",
    "uri" : "spotify:artist:00FQb4jTyendYWaN8pK0wa"
  }, {
    "external_urls" : {
      "spotify" : "https://open.spotify.com/artist/2DaxqgrOhkeH0fpeiQq2f4"
    },
    "followers" : {
      "href" : null,
      "total" : 2311208
    },
    "genres" : [ "britpop", "modern rock", "permanent wave", "rock" ],
    "href" : "https://api.spotify.com/v1/artists/2DaxqgrOhkeH0fpeiQq2f4",
    "id" : "2DaxqgrOhkeH0fpeiQq2f4",
    "images" : [ {
      "height" : 640,
      "url" : "https://i.scdn.co/image/2a8c10fe954e2038fb74251cba601a5594cc5878",
      "width" : 640
    }, {
      "height" : 320,
      "url" : "https://i.scdn.co/image/87d18c79bbfdb1905bb202d200e1c191afc46aa5",
      "width" : 320
    }, {
      "height" : 160,
      "url" : "https://i.scdn.co/image/b4d024ebb4863438b92a1b029bff7f9737263a57",
      "width" : 160
    } ],
    "name" : "Oasis",
    "popularity" : 80,
    "type" : "artist",
    "uri" : "spotify:artist:2DaxqgrOhkeH0fpeiQq2f4"
  }, {
    "external_urls" : {
      "spotify" : "https://open.spotify.com/artist/26T3LtbuGT1Fu9m0eRq5X3"
    },
    "followers" : {
      "href" : null,
      "total" : 1063152
    },
    "genres" : [ "alternative rock", "garage rock", "indie pop", "indie rock", "modern rock", "punk blues" ],
    "href" : "https://api.spotify.com/v1/artists/26T3LtbuGT1Fu9m0eRq5X3",
    "id" : "26T3LtbuGT1Fu9m0eRq5X3",
    "images" : [ {
      "height" : 640,
      "url" : "https://i.scdn.co/image/eb2046b1fca6e9fc911e3b77691a0153c9248ec2",
      "width" : 640
    }, {
      "height" : 320,
      "url" : "https://i.scdn.co/image/fb71116b49a86a1632d3eb7d558846262948c112",
      "width" : 320
    }, {
      "height" : 160,
      "url" : "https://i.scdn.co/image/f55de3db0b2845af43ad2eabe6b360339e9e950f",
      "width" : 160
    } ],
    "name" : "Cage The Elephant",
    "popularity" : 76,
    "type" : "artist",
    "uri" : "spotify:artist:26T3LtbuGT1Fu9m0eRq5X3"
  }, {
    "external_urls" : {
      "spotify" : "https://open.spotify.com/artist/6sN51vEARnAAdBw1IKZ8Q9"
    },
    "followers" : {
      "href" : null,
      "total" : 198707
    },
    "genres" : [ "britpop", "madchester" ],
    "href" : "https://api.spotify.com/v1/artists/6sN51vEARnAAdBw1IKZ8Q9",
    "id" : "6sN51vEARnAAdBw1IKZ8Q9",
    "images" : [ {
      "height" : 640,
      "url" : "https://i.scdn.co/image/2b2cda21d6efb2b11983db75e1cb419714b674d7",
      "width" : 640
    }, {
      "height" : 320,
      "url" : "https://i.scdn.co/image/672906bca83991a38b8537e18249edf718e3e44a",
      "width" : 320
    }, {
      "height" : 160,
      "url" : "https://i.scdn.co/image/c4a80d53f06b118be396d9f29c85775f43e9875d",
      "width" : 160
    } ],
    "name" : "Liam Gallagher",
    "popularity" : 67,
    "type" : "artist",
    "uri" : "spotify:artist:6sN51vEARnAAdBw1IKZ8Q9"
  }, {
    "external_urls" : {
      "spotify" : "https://open.spotify.com/artist/2cCUtGK9sDU2EoElnk0GNB"
    },
    "followers" : {
      "href" : null,
      "total" : 795087
    },
    "genres" : [ "alternative rock", "chamber pop", "folk-pop", "indie folk", "indie pop", "indie rock", "modern rock", "stomp and holler" ],
    "href" : "https://api.spotify.com/v1/artists/2cCUtGK9sDU2EoElnk0GNB",
    "id" : "2cCUtGK9sDU2EoElnk0GNB",
    "images" : [ {
      "height" : 640,
      "url" : "https://i.scdn.co/image/7249cc6ecd94aebd2dfa5cefb6db057a84790d40",
      "width" : 640
    }, {
      "height" : 320,
      "url" : "https://i.scdn.co/image/d62e489c0921ecbf324b92c635236302b98fd026",
      "width" : 320
    }, {
      "height" : 160,
      "url" : "https://i.scdn.co/image/bd35f6dfaef2fd0075e10c835e174aa6a0b0ead4",
      "width" : 160
    } ],
    "name" : "The National",
    "popularity" : 72,
    "type" : "artist",
    "uri" : "spotify:artist:2cCUtGK9sDU2EoElnk0GNB"
  }, {
    "external_urls" : {
      "spotify" : "https://open.spotify.com/artist/2qk9voo8llSGYcZ6xrBzKx"
    },
    "followers" : {
      "href" : null,
      "total" : 2879181
    },
    "genres" : [ "alternative rock", "garage rock", "indie rock", "modern rock", "rock" ],
    "href" : "https://api.spotify.com/v1/artists/2qk9voo8llSGYcZ6xrBzKx",
    "id" : "2qk9voo8llSGYcZ6xrBzKx",
    "images" : [ {
      "height" : 640,
      "url" : "https://i.scdn.co/image/6c9f1c7f7d35c8a880dc520bfb24f7ebcaf0bc14",
      "width" : 640
    }, {
      "height" : 320,
      "url" : "https://i.scdn.co/image/a9a58a359d99ef8ea64ada457f221c904c892163",
      "width" : 320
    }, {
      "height" : 160,
      "url" : "https://i.scdn.co/image/10bf28aad365e0464656b1f8b7ec96a6a9c49bc0",
      "width" : 160
    } ],
    "name" : "Kings of Leon",
    "popularity" : 79,
    "type" : "artist",
    "uri" : "spotify:artist:2qk9voo8llSGYcZ6xrBzKx"
  }, {
    "external_urls" : {
      "spotify" : "https://open.spotify.com/artist/4UXqAaa6dQYAk18Lv7PEgX"
    },
    "followers" : {
      "href" : null,
      "total" : 4035855
    },
    "genres" : [ "emo", "modern rock", "pop punk" ],
    "href" : "https://api.spotify.com/v1/artists/4UXqAaa6dQYAk18Lv7PEgX",
    "id" : "4UXqAaa6dQYAk18Lv7PEgX",
    "images" : [ {
      "height" : 640,
      "url" : "https://i.scdn.co/image/d621cb41aac5fbc406f124bae66c184d58205d5f",
      "width" : 640
    }, {
      "height" : 320,
      "url" : "https://i.scdn.co/image/90970cbcdd67b4c11b46ffd65d0b2967c3b1bbda",
      "width" : 320
    }, {
      "height" : 160,
      "url" : "https://i.scdn.co/image/205dad877133b459c8d448ee938b869cfc63bb0c",
      "width" : 160
    } ],
    "name" : "Fall Out Boy",
    "popularity" : 85,
    "type" : "artist",
    "uri" : "spotify:artist:4UXqAaa6dQYAk18Lv7PEgX"
  }, {
    "external_urls" : {
      "spotify" : "https://open.spotify.com/artist/51Blml2LZPmy7TTiAg47vQ"
    },
    "followers" : {
      "href" : null,
      "total" : 2491501
    },
    "genres" : [ "irish rock", "permanent wave", "rock" ],
    "href" : "https://api.spotify.com/v1/artists/51Blml2LZPmy7TTiAg47vQ",
    "id" : "51Blml2LZPmy7TTiAg47vQ",
    "images" : [ {
      "height" : 640,
      "url" : "https://i.scdn.co/image/e22d5c0c8139b8439440a69854ed66efae91112d",
      "width" : 640
    }, {
      "height" : 320,
      "url" : "https://i.scdn.co/image/40d6c5c14355cfc127b70da221233315497ec91d",
      "width" : 320
    }, {
      "height" : 160,
      "url" : "https://i.scdn.co/image/7293d6752ae8a64e34adee5086858e408185b534",
      "width" : 160
    } ],
    "name" : "U2",
    "popularity" : 80,
    "type" : "artist",
    "uri" : "spotify:artist:51Blml2LZPmy7TTiAg47vQ"
  }, {
    "external_urls" : {
      "spotify" : "https://open.spotify.com/artist/0GNq4xh8uFCyihPurnunf7"
    },
    "followers" : {
      "href" : null,
      "total" : 690100
    },
    "genres" : [ "mpb", "rock gaucho" ],
    "href" : "https://api.spotify.com/v1/artists/0GNq4xh8uFCyihPurnunf7",
    "id" : "0GNq4xh8uFCyihPurnunf7",
    "images" : [ {
      "height" : 640,
      "url" : "https://i.scdn.co/image/30a6169720ba5a1b7e90acffedd677a3ab2fae35",
      "width" : 640
    }, {
      "height" : 200,
      "url" : "https://i.scdn.co/image/4802914ef39a855104d60878ee3d80a6a027030d",
      "width" : 200
    }, {
      "height" : 64,
      "url" : "https://i.scdn.co/image/316e9e1d7a6b1c0a8e1fd3870daa74f4f9727ffd",
      "width" : 64
    } ],
    "name" : "Engenheiros Do Hawaii",
    "popularity" : 65,
    "type" : "artist",
    "uri" : "spotify:artist:0GNq4xh8uFCyihPurnunf7"
  }, {
    "external_urls" : {
      "spotify" : "https://open.spotify.com/artist/7Ln80lUS6He07XvHI8qqHH"
    },
    "followers" : {
      "href" : null,
      "total" : 5192710
    },
    "genres" : [ "garage rock", "indie rock", "modern rock", "permanent wave", "sheffield indie" ],
    "href" : "https://api.spotify.com/v1/artists/7Ln80lUS6He07XvHI8qqHH",
    "id" : "7Ln80lUS6He07XvHI8qqHH",
    "images" : [ {
      "height" : 1333,
      "url" : "https://i.scdn.co/image/c488bf987b2f716a539a768a102855450345113d",
      "width" : 1000
    }, {
      "height" : 853,
      "url" : "https://i.scdn.co/image/b30c0e39cfa70b2124b9d0d24e83761ef48e5540",
      "width" : 640
    }, {
      "height" : 267,
      "url" : "https://i.scdn.co/image/e1f00ceabce8dd0480bad7e873993082d9ac3fe9",
      "width" : 200
    }, {
      "height" : 85,
      "url" : "https://i.scdn.co/image/eba02729ec372fd9954cafd3fd71950bb8fc385f",
      "width" : 64
    } ],
    "name" : "Arctic Monkeys",
    "popularity" : 84,
    "type" : "artist",
    "uri" : "spotify:artist:7Ln80lUS6He07XvHI8qqHH"
  }, {
    "external_urls" : {
      "spotify" : "https://open.spotify.com/artist/7jdFEYD2LTYjfwxOdlVjmc"
    },
    "followers" : {
      "href" : null,
      "total" : 485513
    },
    "genres" : [ ],
    "href" : "https://api.spotify.com/v1/artists/7jdFEYD2LTYjfwxOdlVjmc",
    "id" : "7jdFEYD2LTYjfwxOdlVjmc",
    "images" : [ {
      "height" : 640,
      "url" : "https://i.scdn.co/image/f0b1df5f5c775bff70b7f67325fafd07d212ee53",
      "width" : 640
    }, {
      "height" : 320,
      "url" : "https://i.scdn.co/image/58dba98f04b4c2975ed271ff1df5e64a3333e0eb",
      "width" : 320
    }, {
      "height" : 160,
      "url" : "https://i.scdn.co/image/0d7bd4fd618e133e328f47f3f32ca2bd08aedc85",
      "width" : 160
    } ],
    "name" : "Kaleo",
    "popularity" : 73,
    "type" : "artist",
    "uri" : "spotify:artist:7jdFEYD2LTYjfwxOdlVjmc"
  }, {
    "external_urls" : {
      "spotify" : "https://open.spotify.com/artist/72G62rG7kmq4GFOzyjJV4q"
    },
    "followers" : {
      "href" : null,
      "total" : 124372
    },
    "genres" : [ "brazilian ccm" ],
    "href" : "https://api.spotify.com/v1/artists/72G62rG7kmq4GFOzyjJV4q",
    "id" : "72G62rG7kmq4GFOzyjJV4q",
    "images" : [ {
      "height" : 640,
      "url" : "https://i.scdn.co/image/73133194b80abf03893e79188190997857572a30",
      "width" : 640
    }, {
      "height" : 320,
      "url" : "https://i.scdn.co/image/57857eebefc7ff17552791ffa3bdb33a911ecd1a",
      "width" : 320
    }, {
      "height" : 160,
      "url" : "https://i.scdn.co/image/e86b74f471f65e62876cb69546ded145ee1b8116",
      "width" : 160
    } ],
    "name" : "Padre Fábio De Melo",
    "popularity" : 55,
    "type" : "artist",
    "uri" : "spotify:artist:72G62rG7kmq4GFOzyjJV4q"
  }, {
    "external_urls" : {
      "spotify" : "https://open.spotify.com/artist/1w5Kfo2jwwIPruYS2UWh56"
    },
    "followers" : {
      "href" : null,
      "total" : 2952754
    },
    "genres" : [ "alternative metal", "alternative rock", "classic rock", "grunge", "hard rock", "permanent wave", "post-grunge", "rock" ],
    "href" : "https://api.spotify.com/v1/artists/1w5Kfo2jwwIPruYS2UWh56",
    "id" : "1w5Kfo2jwwIPruYS2UWh56",
    "images" : [ {
      "height" : 639,
      "url" : "https://i.scdn.co/image/04396c910d31a6438be6787447514ddb02e9193c",
      "width" : 640
    }, {
      "height" : 320,
      "url" : "https://i.scdn.co/image/40d668e897af5064f1ebd3b5e44354165f61417c",
      "width" : 320
    }, {
      "height" : 160,
      "url" : "https://i.scdn.co/image/c81eba161ff623248dd8a6e8a3b3c383c92cf454",
      "width" : 160
    } ],
    "name" : "Pearl Jam",
    "popularity" : 78,
    "type" : "artist",
    "uri" : "spotify:artist:1w5Kfo2jwwIPruYS2UWh56"
  }, {
    "external_urls" : {
      "spotify" : "https://open.spotify.com/artist/7mnBLXK823vNxN3UWB7Gfz"
    },
    "followers" : {
      "href" : null,
      "total" : 2334251
    },
    "genres" : [ "alternative rock", "blues-rock", "classic rock", "garage rock", "indie rock", "modern blues", "modern rock", "punk blues", "rock" ],
    "href" : "https://api.spotify.com/v1/artists/7mnBLXK823vNxN3UWB7Gfz",
    "id" : "7mnBLXK823vNxN3UWB7Gfz",
    "images" : [ {
      "height" : 667,
      "url" : "https://i.scdn.co/image/d9c6db5cc59db589396be9a10c074311e327e35d",
      "width" : 1000
    }, {
      "height" : 427,
      "url" : "https://i.scdn.co/image/cdbeb38203304cc867653986feca753a6f06864c",
      "width" : 640
    }, {
      "height" : 133,
      "url" : "https://i.scdn.co/image/15de21342d3e93ecfb05ca00b2203133dfb13d89",
      "width" : 200
    }, {
      "height" : 43,
      "url" : "https://i.scdn.co/image/3741da5cae72ef8bb550675af6faf5dd50796833",
      "width" : 64
    } ],
    "name" : "The Black Keys",
    "popularity" : 75,
    "type" : "artist",
    "uri" : "spotify:artist:7mnBLXK823vNxN3UWB7Gfz"
  }, {
    "external_urls" : {
      "spotify" : "https://open.spotify.com/artist/0epOFNiUfyON9EYx7Tpr6V"
    },
    "followers" : {
      "href" : null,
      "total" : 2016994
    },
    "genres" : [ "alternative rock", "garage rock", "indie pop", "indie rock", "modern rock", "permanent wave", "rock" ],
    "href" : "https://api.spotify.com/v1/artists/0epOFNiUfyON9EYx7Tpr6V",
    "id" : "0epOFNiUfyON9EYx7Tpr6V",
    "images" : [ {
      "height" : 640,
      "url" : "https://i.scdn.co/image/83b70d344ea18f84f6fb654179e6d14ce886b716",
      "width" : 640
    }, {
      "height" : 320,
      "url" : "https://i.scdn.co/image/650a32fcd5fbb68d8db676d33b54b54b4828e255",
      "width" : 320
    }, {
      "height" : 160,
      "url" : "https://i.scdn.co/image/32978a5e54416c666c529ad4772ea266c6df2d1d",
      "width" : 160
    } ],
    "name" : "The Strokes",
    "popularity" : 76,
    "type" : "artist",
    "uri" : "spotify:artist:0epOFNiUfyON9EYx7Tpr6V"
  }, {
    "external_urls" : {
      "spotify" : "https://open.spotify.com/artist/0L8ExT028jH3ddEcZwqJJ5"
    },
    "followers" : {
      "href" : null,
      "total" : 6311963
    },
    "genres" : [ "alternative metal", "alternative rock", "funk metal", "permanent wave", "post-grunge", "rock" ],
    "href" : "https://api.spotify.com/v1/artists/0L8ExT028jH3ddEcZwqJJ5",
    "id" : "0L8ExT028jH3ddEcZwqJJ5",
    "images" : [ {
      "height" : 640,
      "url" : "https://i.scdn.co/image/5b2072e522bf3324019a8c2dc3db20116dff0b87",
      "width" : 640
    }, {
      "height" : 320,
      "url" : "https://i.scdn.co/image/9527e700b5c80aa67350d5de0da10a0aa754fcb1",
      "width" : 320
    }, {
      "height" : 160,
      "url" : "https://i.scdn.co/image/a7af6412632c81ebfb5e39495aa3dacc564cb22b",
      "width" : 160
    } ],
    "name" : "Red Hot Chili Peppers",
    "popularity" : 85,
    "type" : "artist",
    "uri" : "spotify:artist:0L8ExT028jH3ddEcZwqJJ5"
  }, {
    "external_urls" : {
      "spotify" : "https://open.spotify.com/artist/35j8oMehl8Q9mLnVmkVqMC"
    },
    "followers" : {
      "href" : null,
      "total" : 59082
    },
    "genres" : [ ],
    "href" : "https://api.spotify.com/v1/artists/35j8oMehl8Q9mLnVmkVqMC",
    "id" : "35j8oMehl8Q9mLnVmkVqMC",
    "images" : [ {
      "height" : 640,
      "url" : "https://i.scdn.co/image/ea014bf3ee6f0a55056035d891d81592f79bca51",
      "width" : 640
    }, {
      "height" : 320,
      "url" : "https://i.scdn.co/image/a1991bd505671a9273253d3b7dd7855bc85b4cbb",
      "width" : 320
    }, {
      "height" : 160,
      "url" : "https://i.scdn.co/image/b980a98c8fed5c619ee55566a4acd61074c55125",
      "width" : 160
    } ],
    "name" : "Suricato",
    "popularity" : 42,
    "type" : "artist",
    "uri" : "spotify:artist:35j8oMehl8Q9mLnVmkVqMC"
  }, {
    "external_urls" : {
      "spotify" : "https://open.spotify.com/artist/1GLtl8uqKmnyCWxHmw9tL4"
    },
    "followers" : {
      "href" : null,
      "total" : 1344106
    },
    "genres" : [ "garage rock", "indie rock", "modern rock" ],
    "href" : "https://api.spotify.com/v1/artists/1GLtl8uqKmnyCWxHmw9tL4",
    "id" : "1GLtl8uqKmnyCWxHmw9tL4",
    "images" : [ {
      "height" : 640,
      "url" : "https://i.scdn.co/image/4ec808c80ecddfc03d0d7111ffc42da9498d8b77",
      "width" : 640
    }, {
      "height" : 320,
      "url" : "https://i.scdn.co/image/96c8acc148224cd81b12ce9a0781b92b6cd01dc7",
      "width" : 320
    }, {
      "height" : 160,
      "url" : "https://i.scdn.co/image/207e60c81a5fa235ce2db8dc8baed792e4fbf476",
      "width" : 160
    } ],
    "name" : "The Kooks",
    "popularity" : 74,
    "type" : "artist",
    "uri" : "spotify:artist:1GLtl8uqKmnyCWxHmw9tL4"
  } ],
  "total" : 34,
  "limit" : 20,
  "offset" : 0,
  "previous" : null,
  "href" : "https://api.spotify.com/v1/me/top/artists",
  "next" : "https://api.spotify.com/v1/me/top/artists?limit=20&offset=20"
}
